<?xml version="1.0" encoding="utf-8"?>
<!-- Generator: Adobe Illustrator 28.2.0, SVG Export Plug-In . SVG Version: 6.00 Build 0)  -->
<svg version="1.1" id="Layer_1" xmlns="http://www.w3.org/2000/svg" xmlns:xlink="http://www.w3.org/1999/xlink" x="0px" y="0px"
	 viewBox="0 0 860 560" style="enable-background:new 0 0 860 560;" xml:space="preserve">
<style type="text/css">
	.st0{fill-rule:evenodd;clip-rule:evenodd;}
</style>
<g>
	<path d="M438.8,345.5l-67.6,27.3c-7.4-17.8-22.9-59.1,3.5-68.2C403.2,295.1,425,319.5,438.8,345.5L438.8,345.5z M683,180.1
		c36.2-11.3,60.8,34.2,71.6,61.5c14.3,36.5,24.9,89.5-15.2,105.6L495.2,446c5.3-27.4,0.2-58.5-11.9-90.6
		c-10.4-27.5-26.7-56.7-50.8-74.2C503.6,252.5,666.7,185.3,683,180.1L683,180.1z M753.2,381.4c62.9-25.4,57.5-96.5,35.9-152.4
		c-18.9-48.6-60.9-104.5-120.3-82.9c-31.4,11.6-63.6,25.6-94.9,38.3c-24.5,0.5-156-103.9-156.3-104.2L152.3,187.4l29.2,27.8
		l230.1-93c20,15.9,71.9,55.8,116.5,80.6l-167.4,67.6c-63.4,25.6-30,105.7-7.3,149.1l99.4-40.2c10.6,33,15.9,77.2-20.1,91.8
		c-66.5,26.9-202.2-111.7-290.4-199.7l-37.7,15.2c107.6,105.3,252,254.8,341.8,218.5L753.2,381.4L753.2,381.4z"/>
</g>
<g>
	<polygon class="st0" points="241.1,272.1 275.9,258 305.7,286.5 270.9,300.5 241.1,272.1 	"/>
</g>
<g>
	<polygon class="st0" points="176.5,257.7 206.3,286.1 241.1,272.1 211.3,243.7 176.5,257.7 	"/>
</g>
<g>
	<polygon class="st0" points="246.1,229.6 275.9,258 310.7,244 280.9,215.6 246.1,229.6 	"/>
</g>
<g>
	<polygon class="st0" points="17.5,200.6 47.3,229 82.1,215 52.3,186.5 17.5,200.6 	"/>
</g>
<g>
	<polygon class="st0" points="87.1,172.5 116.9,200.9 151.7,186.8 121.9,158.4 87.1,172.5 	"/>
</g>
<g>
	<polygon class="st0" points="92,130 121.9,158.4 156.7,144.4 126.8,116 92,130 	"/>
</g>
<g>
	<polygon class="st0" points="111.9,243.4 141.7,271.8 176.5,257.7 146.7,229.3 111.9,243.4 	"/>
</g>
<g>
	<polygon class="st0" points="40,272.4 69.9,300.8 104.6,286.8 74.8,258.4 40,272.4 	"/>
</g>
</svg>


