<?xml version="1.0" encoding="utf-8"?>
<!-- Generator: Adobe Illustrator 28.2.0, SVG Export Plug-In . SVG Version: 6.00 Build 0)  -->
<svg version="1.1" id="Layer_1" xmlns="http://www.w3.org/2000/svg" xmlns:xlink="http://www.w3.org/1999/xlink" x="0px" y="0px"
	 viewBox="0 0 403 203" enable-background="new 0 0 403 203" xml:space="preserve">
<linearGradient id="SVGID_1_" gradientUnits="userSpaceOnUse" x1="40.4312" y1="-120.8664" x2="344.4114" y2="152.907" gradientTransform="matrix(1 0 0 -1 0 204)">
	<stop  offset="0" style="stop-color:#00247F"/>
	<stop  offset="1" style="stop-color:#004CBF"/>
</linearGradient>
<path opacity="0.5" fill="url(#SVGID_1_)" enable-background="new    " d="M84.1,22.5C92.2,8.6,107,0,123.1,0l156,0
	c16.1,0,30.9,8.6,39,22.5l78,135.1c8,13.9,8,31.1,0,45l-78,135.1c-8,13.9-22.9,22.5-39,22.5h-156c-16.1,0-30.9-8.6-39-22.5
	l-78-135.1c-8-13.9-8-31.1,0-45L84.1,22.5z"/>
</svg>
